{
      "nodes": [
              {"index":0, "label": "A petit texte", "@type":"av:project", "x":100, "y":100, "@id":"http://fluidlog.com/node/0", "neighbours":[] },
              {"index":1, "label": "B texte sur deux longues lignes", "type":"av:idea", "x":200, "y":200, "@id":"http://fluidlog.com/node/1", "neighbours":[] },
              {"index":2, "label": "C", "@type":"av:project", "x":400, "y":200, "@id":"http://fluidlog.com/node/2", "neighbours":[] },
              {"index":3, "label": "D", "@type":"av:idea", "x":400, "y":400, "@id":"http://fluidlog.com/node/3", "neighbours":[] },
              {"index":4, "label": "E", "@type":"av:project", "x":300, "y":400, "@id":"http://fluidlog.com/node/4", "neighbours":[] },
              {"index":5, "label": "F", "@type":"av:project", "x":500, "y":300, "@id":"http://fluidlog.com/node/5", "neighbours":[] },
              {"index":6, "label": "G", "@type":"av:project", "x":300, "y":500, "@id":"http://fluidlog.com/node/6", "neighbours":[] },
              {"index":7, "label": "H", "@type":"av:project", "x":400, "y":500, "@id":"http://fluidlog.com/node/7", "neighbours":[] }
      ],
      "edges": [
              { "source": 0, "target": 1 },
              { "source": 0, "target": 2 },
              { "source": 0, "target": 3 },
              { "source": 3, "target": 4 },
              { "source": 3, "target": 5 },
              { "source": 3, "target": 6 },
              { "source": 3, "target": 7 }
      ]
}
