{
  "config" : {
    "dataUri" : "https://data.virtual-assembly.org/sparql",
    "domainSemappsUri" : "https://archipel.assemblee-virtuelle.org",
    "backupDataUri" : "assets/fluidgraph/example/8.json",
    "menuTitle" : "Archipel",
    "logoName" : "logo-av.png",
    "logoType" : "mini",
    "menuColor" : "#25cdff",
    "sidebarButtonColor" : "#25cdff",
    "displayStatistics" : true,
    "version" : "cartosemapps-archipel",
    "modeRequest" : "sparql",
    "typeServer" : "triplestore-graph",
    "autoLoad" : true,
    "autoDisplay" : true,
    "keepMenuOpen" : true,
    "displayNodesAlone" : "nodesEdgesOnly",
    "displayFilterEdge" : false,
    "colorizeFilterNode" : true,
    "displayFlodPanel" : true,
    "displaySemappsLink" : true,
    "firstLabelFlodPanel" : "Bienvenue sur la cartographie sémantique du SemApps **Archipel** ! Cliquez sur un noeud pour afficher le FLOD !",
    "useMdForDescriptionFlodPanel" : true,
    "force" : {
      "enabled" : true,
      "center" : {
        "x": 0.5,
        "y": 0.5
      },
      "charge" : {
          "enabled" : true,
          "theta" : 0.9,
          "strength" : -1000,
          "distanceMin" : 1,
          "distanceMax" : 2000
      },
      "collide" : {
          "enabled" : true,
          "strength" : 1,
          "iterations" : 0.7,
          "radius" : 40
      },
      "forceX" : {
          "enabled" : true,
          "strength" : 0.1,
          "x" : 0.5
      },
      "forceY" : {
          "enabled" : true,
          "strength" : 0.1,
          "y": 0.5
      },
      "link" : {
          "enabled" : true,
          "distance" : 50,
          "strength" : 0.1,
          "iterations" : 2
      },
      "chargeStrengthSlider" : true,
      "collideStrengthSlider" : true,
      "linkDistanceSlider" : true,
      "linkStrengthSlider" : true,
      "alphaTarget" : 0.3
    },
    "activeElasticity" : false,
    "activeElasticityOnDragNode" : false,
    "curvesEdges" : true,
    "curvesEdgesType" : "diagonal",
    "statisticsColor" : {
      "pair:person" : "yellow",
      "pair:organization" : "orange",
      "pair:project" : "red",
      "pair:theme" : "vert",
      "pair:skill" : "blue",
      "pair:event" : "violet"
    },
    "filterTypeNodeOption" : {
      "pair:person" : true,
      "pair:organization" : true,
      "pair:project" : true,
      "pair:theme" : true,
      "pair:skill" : true,
      "pair:event" : true
    },
    "filterTypeNodeDisplay" : {
      "pair:person" : true,
      "pair:organization" : true,
      "pair:project" : true,
      "pair:theme" : false,
      "pair:skill" : true,
      "pair:event" : false
    },
    "filterTypeEdgeOption" : {
      "pair:involves" : true,
      "pair:offeredBy" : true,
      "pair:affiliatedBy" : true,
      "pair:offers" : true,
      "pair:involvedIn" : true,
      "pair:affiliates" : true,
      "pair:partnerOf" : true,
      "pair:hasTopic" : true,
      "pair:topicOf" : true
    },
    "pairLabel" : {
      "pair:person" : "Person",
      "pair:organization" : "Orga",
      "pair:project" : "Project",
      "pair:theme" : "Theme",
      "pair:skill" : "Skill",
      "pair:event" : "Event",
      "pair:involves" : "Involves",
      "pair:offeredBy" : "Offered by",
      "pair:affiliatedBy": "Affiliated by",
      "pair:offers" : "Offers",
      "pair:involvedIn" : "Involved in",
      "pair:affiliates" : "Affiliates",
      "pair:partnerOf" : "Partner Of",
      "pair:hasTopic" : "Has topic",
      "pair:topicOf" : "Topic Of"
    }
  },
  "customNodes" : {
    "listType" : ["pair:person",
                  "pair:organization",
                  "pair:project",
                  "pair:skill",
                  "pair:theme",
                  "pair:event"
                  ],
    "colorType" : { "pair:person" : "#FFF800",
                    "pair:organization" : "#FF7400",
                    "pair:project" : "#FF4351",
                    "pair:skill" : "#28CDFB",
                    "pair:theme" : "#A5DE37",
                    "pair:event" : "#7B72E9"
                  },
    "colorTypeRgba" : {"pair:person" : "255,248,0",
                      "pair:organization" : "255,116,0",
                      "pair:project" : "265,67,81",
                      "pair:skill" : "40,205,251",
                      "pair:theme" : "165,222,55",
                      "pair:event" : "123,114,233"
                      },
    "neighbourColorType" : {"pair:person" : "#F3FD97",
                            "pair:organization" : "#FFDE98",
                            "pair:project" : "#FF4351",
                            "pair:skill" : "#899DD5",
                            "pair:theme" : "#B5F49D",
                            "pair:event" : "#7B72E9"
                          },
    "neighbourColorTypeRgba" : {"pair:person" : "243,253,151",
                                "pair:organization" : "255,222,152",
                                "pair:project" : "265,67,81",
                                "pair:skill" : "40,205,251",
                                "pair:theme" : "165,222,55",
                                "pair:event" : "123,114,233"
                              },
    "imageType" : {"pair:person" : "yellow user",
                    "pair:organization" : "orange help",
                    "pair:project" : "red cube",
                    "pair:skill" : "blue unhide",
                    "pair:theme" : "green lab",
                    "pair:event" : "violet wait"
                  },
    "maxCharactersInLabel" : 33,
    "indiceProportionalRadius" : 0.5
  }
}
